…
Top rated titles

``` r
subset(grouped_title_ign, score==10)
```

    ## # A tibble: 32 x 5
    ##    title                                score release_year count main_genre
    ##    <chr>                                <dbl>        <int> <int> <chr>     
    ##  1 Checkered Flag                          10         1999     1 Racing    
    ##  2 Dragon Warrior III                      10         2001     1 RPG       
    ##  3 Grand Theft Auto IV (Special Editio~    10         2008     2 Action    
    ##  4 Grand Theft Auto V                      10         2013     5 Action    
    ##  5 Infinity Blade II                       10         2011     1 Fighting  
    ##  6 Inside                                  10         2016     3 Adventure 
    ##  7 Mario Golf [Game Boy Color]             10         1999     1 Sports    
    ##  8 Metal Gear Solid [2000]                 10         2000     1 Action    
    ##  9 Metal Gear Solid 4: Guns of the Pat~    10         2008     1 Action    
    ## 10 Metal Gear Solid 4: Guns of the Pat~    10         2008     1 Action    
    ## # ... with 22 more rows
…
